[
{
	"model":"ovc_sms.messagetext",
	"pk":1,
	"fields":{
		"variable":"RECS_EXPECTED_STRING"
		,"text":"Expected format is: RECS W<memberID>/WNRC<memberNRC> X<password> B<beneficiaryID>/BNRC<beneficiary_nrc> <encounter type keyword> <service referral keywords>"
		,"description":"The response given to a user when the enter some text that is completely not recognised"
	}
},
{
	"model":"ovc_sms.messagetext",
	"pk":2,
	"fields":{
		"variable":"INVALID_BENEFICIARY_ID_ERROR"
		,"text":"The Beneficiary: '{field}' is invalid or not registered in ZOMIS"
	}
},
{
	"model":"ovc_sms.messagetext",
	"pk":3,
	"fields":{
		"variable":"PERSON_VOID_ERROR"
		,"text":"The person: '{field}' has been deleted from ZOMIS"
	}
},
{
	"model":"ovc_sms.messagetext",
	"pk":4,
	"fields":{
		"variable":"AUTH_ERROR_INVALID_PASSWORD"
		,"text":"The password is incorrect"
	}
},
{
	"model":"ovc_sms.messagetext",
	"pk":5,
	"fields":{
		"variable":"AUTH_ERROR_MISSING_WORKFORCE_ID_UNREGISTERED_NUMBER"
		,"text":"Please include your NRC preceeded by WNRC, or your ZOMIS workforce ID starting with W, when sending from a phone number not registered in ZOMIS"
	}
},
{
	"model":"ovc_sms.messagetext",
	"pk":6,
	"fields":{
		"variable":"AUTH_ERROR_INVALID_ID_OR_PASSWORD_UNREGISTERED_NUMBER"
		,"text":"Invalid NRC or workforce ID or password.  Please include your NRC preceeded by WNRC or your workforce ID, and the letter 'X' followed by your ZOMIS password."
	}
},
{
	"model":"ovc_sms.messagetext",
	"pk":7,
	"fields":{
		"variable":"SELECTION_ERROR_INVALID_ORG_UNIT"
		,"text":"The organisational unit '{field}' you selected is not one of your parent organisational units"
	}
},
{
	"model":"ovc_sms.messagetext",
	"pk":8,
	"fields":{
		"variable":"SELECTION_ERROR_NON_EXISTANT_ORG_UNIT"
		,"text":"There is no organisational unit with ID '{field}' registered in ZOMIS"
	}
},
{
	"model":"ovc_sms.messagetext",
	"pk":9,
	"fields":{
		"variable":"GEO_ERROR_INVALID_WARD"
		,"text":"The ward code is invalid or does not exist"
	}
},
{
	"model":"ovc_sms.messagetext",
	"pk":10,
	"fields":{
		"variable":"GEO_ERROR_INVALID_GEO_WORKER"
		,"text":"The specified ward is not part of your designated geographical areas in your workforce member registration"
	}
},
{
	"model":"ovc_sms.messagetext",
	"pk":11,
	"fields":{
		"variable":"NO_PRIMARY_ORG_UNIT"
		,"text":"You have no primary parent organisational unit in your workforce registration"
	}
},
{
	"model":"ovc_sms.messagetext",
	"pk":12,
	"fields":{
		"variable":"NO_SERVICES_PROVIDED"
		,"text":"You should include at least one keyword for a service you have provided, a referral you have provided or an adverse condition the beneficiary has experienced"
	}
},
{
	"model":"ovc_sms.messagetext",
	"pk":13,
	"fields":{
		"variable":"INVALID_WORKER_ERROR"
		,"text":"This workforce member ID or NRC is not registered in ZOMIS"
	}
},
{
	"model":"ovc_sms.messagetext",
	"pk":14,
	"fields":{
		"variable":"RECS_SUCCESS_MESSAGE"
		,"text":"<SAVED> The beneficiary encounter has been saved successfully"
	}
},
{
	"model":"ovc_sms.messagetext",
	"pk":15,
	"fields":{
		"variable":"PASSWORD_IS_MISSING_ERROR"
		,"text":"Please include the letter 'X' followed by your ZOMIS password"
	}
},
{
	"model":"ovc_sms.messagetext",
	"pk":16,
	"fields":{
		"variable":"DATE_TOO_FAR_BACK_ERROR"
		,"text":"You cannot record encounters which took place more than three months ago via SMS"
	}
},
{
	"model":"ovc_sms.messagetext",
	"pk":17,
	"fields":{
		"variable":"ENCOUNTER_TYPE_MISSING_ERROR"
		,"text":"Please include the encounter type keyword for where the encounter took place (EHOM for home of beneficiary, EWRK for your workplace or EELS for elsewhere)"
	}
},
{
	"model":"ovc_sms.messagetext",
	"pk":18,
	"fields":{
		"variable":"UNRECOGNISED_KEYWORD_ERROR"
		,"text":"Your SMS should begin with an SMS form keyword for example 'RECS' for an basic service/referral SMS"
	}
},
{
	"model":"ovc_sms.messagetext",
	"pk":19,
	"fields":{
		"variable":"UNDO_SUCCESS_MSG"
		,"text":"<Undone> Encounter for beneficiary ID: {beneficiary_id} on {encounter_date} has been deleted along with the associated services and referrals"
	}
},
{
	"model":"ovc_sms.messagetext",
	"pk":20,
	"fields":{
		"variable":"NO_MESSAGES_TO_UNDO_ERROR"
		,"text":"We could not find a message in the past three days for you to undo"
	}
},
{
	"model":"ovc_sms.messagetext",
	"pk":21,
	"fields":{
		"variable":"GENERIC_SMS_FIELD_ERROR"
		,"text":"There was an error processing the field: {field}. Please refer to your job aid or contact your supervisor for guidance."
	}
},
{
	"model":"ovc_sms.messagetext",
	"pk":22,
	"fields":{
		"variable":"MISSING_WORKFORCE_ID_ERROR"
		,"text":"You are not registered as a workforce member providing services to children"
	}
},
{
	"model":"ovc_sms.messagetext",
	"pk":23,
	"fields":{
		"variable":"NO_ADVERSE_ON_GUARDIAN_ERROR"
		,"text":"Adverse conditions can only be recorded for children, not guardians"
	}
  },
{
	"model":"ovc_sms.messagetext",
	"pk":24,
	"fields":{
		"variable":"NO_WORKFORCE_MEMBERS_FOUND"
		,"text":"No workforce members match this search"
	}
  },
{
	"model":"ovc_sms.messagetext",
	"pk":25,
	"fields":{
		"variable":"NO_BENEFICIARIES_FOUND"
		,"text":"No beneficiaries match this search"
	}
  },
{
	"model":"ovc_sms.messagetext",
	"pk":26,
	"fields":{
		"variable":"NO_ORG_UNITS_FOUND"
		,"text":"No organizational units match this search"
	}
  },
{
	"model":"ovc_sms.messagetext",
	"pk":27,
	"fields":{
		"variable":"MISSING_SEARCH_TEXT_ERROR"
		,"text":"You must specify a Search Text within your message"
	}
  },
{
	"model":"ovc_sms.messagetext",
	"pk":28,
	"fields":{
		"variable":"PASSWORD_CHANGE_FAILED"
		,"text":"Your attempt to change a password failed. Please contact your supervisor"
	}
  },
{
	"model":"ovc_sms.messagetext",
	"pk":29,
	"fields":{
		"variable":"PASSWORD_CHANGE_SUCCESSFUL"
		,"text":"You have succesfully changed your password."
	}
  },
{
	"model":"ovc_sms.messagetext",
	"pk":30,
	"fields":{
		"variable":"INCORRECT_PASSWORD_FORMAT"
		,"text":"Password change failed. The password must be a maximum of 6 characters using only letters or numbers."
	}
  },
{
	"model":"ovc_sms.messagetext",
	"pk":31,
	"fields":{
		"variable":"NO_WARDS_FOUND"
		,"text":"No wards found in search."
	}
  },
{
	"model":"ovc_sms.messagetext",
	"pk":32,
	"fields":{
		"variable":"NO_KEYWORDS_FOUND"
		,"text":"No keywords matching your description could be found"
	}
  },
{
	"model":"ovc_sms.messagetext",
	"pk":33,
	"fields":{
		"variable":"SPECIAL_CHARACTERS_FOUND_IN_PASSWORD"
		,"text":"Only letters and numbers are allowed in the password. Please request a password change"
	}
  }
]

